{
  "packageDirectories": [
    {
      "path": "force-app",
      "default": true,
      "package": "gitlab_cicd",
      "versionName": "ver 0.1",
      "versionNumber": "0.1.0.NEXT",
      "versionDescription": "GitLab_CICD_Package"
    }
  ],
  "name": "gitlab_cicd",
  "namespace": "",
  "sfdcLoginUrl": "https://login.salesforce.com",
  "sourceApiVersion": "47.0",
  "packageAliases": {
    "gitlab_cicd": "0HoDn000000005aKAA"
  }
}